C:\Users\Hector Ivan\IdeaProjects\gescal\hotfix\cidenet\cidenet-repository\src\main\java\col\humanos\cidenet\custom\EmpleadoRepositoryCustom.java
C:\Users\Hector Ivan\IdeaProjects\gescal\hotfix\cidenet\cidenet-repository\src\main\java\col\humanos\cidenet\util\UtilRepository.java
C:\Users\Hector Ivan\IdeaProjects\gescal\hotfix\cidenet\cidenet-repository\src\main\java\col\humanos\cidenet\EmpleadoRepository.java
C:\Users\Hector Ivan\IdeaProjects\gescal\hotfix\cidenet\cidenet-repository\src\main\java\col\humanos\cidenet\impl\EmpleadoRepositoryImpl.java
